[
  {
    "name": "Alexandre Rangel",
    "lower_name": "alexandre rangel",
    "image": "https://www.alexandrerangel.art.br/imagens/AlexandreRangel-Pixels-192.png",
    "links": {
      "website": "https://www.alexandrerangel.art.br",
      "twitter": "https://twitter.com/AlexandreRangel",
      "github": "https://github.com/AlexandreRangel",
      "instagram": "https://www.instagram.com/quasecinema"
    }
  },
  {
    "name": "beise",
    "lower_name": "beise",
    "image": "https://avatars1.githubusercontent.com/u/355264?s=400&v=4",
    "links": {
      "website": "https://hitnail.net",
      "twitter": "https://twitter.com/elbeise",
      "github": "https://github.com/brunoro",
      "instagram": ""
    }
  },
  {
    "name": "berin",
    "lower_name": "berin",
    "image": "https://gitlab.com/algoravebrasil/algoravebrasil.gitlab.io/-/raw/main/public/artistas/berin.png",
    "links": {
      "website": "https://berinfontes.com",
      "twitter": "https://twitter.com/bbfontes",
      "github": "https://github.com/berinhard",
      "instagram": "https://instagram.com/fontes.bernardo"
    }
  },
  {
    "name": "BSBLOrk",
    "lower_name": "bsblork",
    "image": "http://vhaa.art/wp-content/uploads/2020/12/bsblork8anos.jpg",
    "links": {
      "website": "https://bsblork.gitlab.io",
      "twitter": "",
      "github": "",
      "instagram": ""
    }
  },
  {
    "name": "Diego Duk\u00e3o",
    "lower_name": "diego duk\u00e3o",
    "image": "http://0.gravatar.com/avatar/3bb81a67c51ccbd32b054297acb7fc8c",
    "links": {
      "website": "https://twitter.com/diegodukao",
      "twitter": "https://twitter.com/diegodukao",
      "github": "https://github.com/diegodukao",
      "instagram": "https://instagram.com/diegodukao"
    }
  },
  {
    "name": "dunossauro",
    "lower_name": "dunossauro",
    "image": "https://dunossauro.com/images/dunossauro_pic.jpg",
    "links": {
      "website": "https://dunossauro.com",
      "twitter": "https://twitter.com/dunossauro",
      "github": "https://github.com/dunossauro",
      "instagram": "https://www.instagram.com/dunossauro"
    }
  },
  {
    "name": "euFraktus X",
    "lower_name": "eufraktus x",
    "image": "http://vhaa.art/wp-content/uploads/2020/12/eufraktus.jpeg",
    "links": {
      "website": "https://holofractalmusic.wordpress.com",
      "twitter": "https://twitter.com/eufrasioprates",
      "github": "https://github.com/eufraktus",
      "instagram": "https://www.instagram.com/eufrasioprates/"
    }
  },
  {
    "name": "Fl\u00e1vio Amieiro",
    "lower_name": "fl\u00e1vio amieiro",
    "image": "https://secure.gravatar.com/avatar/5d0c4875b01863268b75fb4f4be4069d",
    "links": {
      "website": "https://amieiro.net",
      "twitter": "https://twitter.com/flavioamieiro",
      "github": "https://github.com/flavioamieiro",
      "instagram": "https://instagram.com/flavioamieiro"
    }
  },
  {
    "name": "FMiramar",
    "lower_name": "fmiramar",
    "image": "https://avatars.githubusercontent.com/u/54965070?v=4",
    "links": {
      "website": "https://www.instagram.com/fmiramar_/",
      "twitter": "https://twitter.com/fmiramar_",
      "github": "https://github.com/fmiramar",
      "instagram": "https://www.instagram.com/fmiramar_/"
    }
  },
  {
    "name": "ghales",
    "lower_name": "ghales",
    "image": "https://avatars2.githubusercontent.com/u/37638655",
    "links": {
      "website": "https://ghales.top",
      "twitter": "https://twitter.com/ghalestrilo",
      "github": "https://github.com/ghalestrilo",
      "instagram": "https://instagram.com/ghalestrilo"
    }
  },
  {
    "name": "Gil Fuser",
    "lower_name": "gil fuser",
    "image": "https://raw.githubusercontent.com/gilfuser/gilfuser.github.io/master/docs/.vuepress/public/images/ca-04_1x1.jpg",
    "links": {
      "website": "https://gilfuser.net",
      "twitter": "",
      "github": "https://github.com/gilfuser",
      "instagram": "https://www.instagram.com/gilfuser"
    }
  },
  {
    "name": "Indiz\u00edvel",
    "lower_name": "indiz\u00edvel",
    "image": "https://avatars.githubusercontent.com/u/850685?v=4",
    "links": {
      "website": "https://brunorohde.wordpress.com/",
      "twitter": "",
      "github": "https://github.com/brunorohde/",
      "instagram": "https://www.instagram.com/_indizivel/"
    }
  },
  {
    "name": "Joenio M. Costa",
    "lower_name": "joenio",
    "image": "https://joenio.me/avatars/joenio-2020-800x800.jpg",
    "links": {
      "website": "https://joenio.me",
      "twitter": "https://twitter.com/joenio",
      "github": "https://github.com/joenio",
      "instagram": "https://www.instagram.com/joenio.costa"
    }
  },
  {
    "name": "lowbin",
    "lower_name": "lowbin",
    "image": "http://vhaa.art/wp-content/uploads/2020/12/indice.jpeg",
    "links": {
      "website": "http://vhaa.art/lowbin",
      "twitter": "https://twitter.com/vhaa_art",
      "github": "https://github.com/low-bin",
      "instagram": "https://www.instagram.com/lowbin.art"
    }
  },
  {
    "name": "Mari Moura",
    "lower_name": "mari moura",
    "image": "https://marimoura.4two.art/imagem_1.jpg",
    "links": {
      "website": "https://marimoura.4two.art/",
      "twitter": "https://twitter.com/Marimoura5",
      "github": "",
      "instagram": "https://www.instagram.com/marimoura5/"
    }
  },
  {
    "name": "n0p",
    "lower_name": "n0p",
    "image": "https://en.gravatar.com/userimage/242397/19b125ed177b757e3cda896f222a98ac.jpg?size=1200",
    "links": {
      "website": "https://bgo.la/",
      "twitter": "https://twitter.com/bgola",
      "github": "https://github.com/bgola",
      "instagram": "https://instagram.com/brunogola"
    }
  }
]